[
	{
		"id": "11en",
		"title": "React and Webpack",
		"submodules": [
			{
				"id": "01",
				"title": "What is React?",
				"task": ""
			},
			{
				"id": "02",
				"title": "First steps in React.js",
				"task": ""
			},
			{
				"id": "03",
				"title": "Component-based approach",
				"task": "Creating React components"
			}
		]
	}
]
